lab09/lab09/lab09_sequence_detector.vcd
$date
	Wed Jul 22 15:05:02 2026
$end
$version
	Icarus Verilog
$end
$timescale
	1ps
$end
$scope module tb_sequence_detector $end
$var wire 1 ! detected $end
$var reg 1 " bit_in $end
$var reg 1 # clk $end
$var reg 1 $ reset $end
$var reg 16 % stream [15:0] $end
$var integer 32 & i [31:0] $end
$scope module uut $end
$var wire 1 " bit_in $end
$var wire 1 # clk $end
$var wire 1 $ reset $end
$var parameter 3 ' S0 $end
$var parameter 3 ( S1 $end
$var parameter 3 ) S11 $end
$var parameter 3 * S110 $end
$var parameter 3 + S1101 $end
$var reg 1 ! detected $end
$var reg 3 , next_state [2:0] $end
$var reg 3 - state [2:0] $end
$upscope $end
$upscope $end
$enddefinitions $end
$comment Show the parameter values. $end
$dumpall
b100 +
b11 *
b10 )
b1 (
b0 '
$end
#0
$dumpvars
b0 -
b0 ,
bx &
b1101011011011101 %
1$
0#
0"
0!
$end
#5000
1#
#10000
0#
#12000
b1 ,
1"
b1111 &
0$
#15000
b10 ,
b1 -
1#
#20000
0#
#22000
b1110 &
#25000
b10 -
1#
#30000
0#
#32000
b11 ,
0"
b1101 &
#35000
b0 ,
b11 -
1#
#40000
0#
#42000
b100 ,
1"
b1100 &
#45000
1!
b10 ,
b100 -
1#
#50000
0#
#52000
b0 ,
0"
b1011 &
#55000
0!
b0 -
1#
#60000
0#
#62000
b1 ,
1"
b1010 &
#65000
b10 ,
b1 -
1#
#70000
0#
#72000
b1001 &
#75000
b10 -
1#
#80000
0#
#82000
b11 ,
0"
b1000 &
#85000
b0 ,
b11 -
1#
#90000
0#
#92000
b100 ,
1"
b111 &
#95000
1!
b10 ,
b100 -
1#
#100000
0#
#102000
b110 &
#105000
0!
b10 -
1#
#110000
0#
#112000
b11 ,
0"
b101 &
#115000
b0 ,
b11 -
1#
#120000
0#
#122000
b100 ,
1"
b100 &
#125000
1!
b10 ,
b100 -
1#
#130000
0#
#132000
b11 &
#135000
0!
b10 -
1#
#140000
0#
#142000
b10 &
#145000
1#
#150000
0#
#152000
b11 ,
0"
b1 &
#155000
b0 ,
b11 -
1#
#160000
0#
#162000
b100 ,
1"
b0 &
#165000
1!
b10 ,
b100 -
1#
#170000
0#
#172000
b11111111111111111111111111111111 &
